{
  "tabletsAA": {
    "ASUS1": "Mozilla/5.0 (iPad; U; CPU OS 3_2 like Mac OS X; es-es) AppleWebKit/531.21.10 (KHTML, like Gecko) Version/4.0.4 Mobile/7B360 Safari/531.21.10",
    "Google1": "Mozilla/5.0 (Linux; U; Android 4.3; ro-ro; Nexus 10 Build/JWR66V) AppleWebKit/534.30 (KHTML, like Gecko) Version/4.0 Safari/534.30",
    "ASUS2": "Mozilla/5.0 (Linux; U; Android 4.2.1; cs-cz; ME173X Build/JOP40D) AppleWebKit/534.30 (KHTML, like Gecko) Version/4.0 Safari/534.30",
    "Google2": "Mozilla/5.0 (Linux; Android 4.4.2; Nexus 7 Build/KOT49H) AppleWebKit/537.36 (KHTML, like Gecko) Chrome/32.0.1700.99 Safari/537.36",
    "HP1": "Mozilla/5.0 (hp-tablet; Linux; hpwOS/3.0.5; U; de-DE) AppleWebKit/534.6 (KHTML, like Gecko) wOSBrowser/234.83 Safari/534.6 TouchPad/1.0",
    "HTC1": "Mozilla/5.0 (Linux; U; Android 3.1; el-gr; HTC PG09410 Build/HMJ15) AppleWebKit/534.13 (KHTML, like Gecko) Version/4.0 Safari/534.13",
    "Kindle1": "Mozilla/5.0 (Linux; U; en-US) AppleWebKit/528.5+ (KHTML, like Gecko, Safari/528.5+) Version/4.0 Kindle/3.0 (screen 600×800; rotate)",
    "Kindle2": "Mozilla/5.0 (Linux; U; Android 2.3.4; en-us; Kindle Fire Build/GINGERBREAD) AppleWebKit/533.1 (KHTML, like Gecko) Version/4.0 Mobile Safari/533.1",
    "Kindle3": "Mozilla/5.0 (Linux; U; Android 4.0.3; en-us; KFTT Build/IML74K) AppleWebKit/535.19 (KHTML like Gecko) Silk/2.4 Mobile Safari/535.19 Silk-Acceleratedtrue",
    "Kindle4": "Mozilla/5.0 (Linux; U; Android 4.0.3; en-us; KFOT Build/IML74K) AppleWebKit/535.19 (KHTML like Gecko) Silk/2.4 Mobile Safari/535.19 Silk-Acceleratedtrue",
    "Kindle5": "Mozilla/5.0 (Linux; U; en-us; KFJWI Build/IMM76D) AppleWebKit/535.19 (KHTML like Gecko) Silk/2.4 Safari/535.19 Silk-Acceleratedtrue",
    "Samsung1": "Mozilla/5.0 (Linux; U; Android 4.1.2; fa-fa; GT-N8005 Build/JZO54K) AppleWebKit/534.30 (KHTML, like Gecko) Version/4.0 Safari/534.30",
    "Samsung2": "Mozilla/5.0 (Linux; U; Android 4.0.4; de-de; GT-P3105 Build/IMM76D) AppleWebKit/534.30 (KHTML, like Gecko) Version/4.0 Safari/534.30",
    "Samsung3": "Mozilla/5.0 (Linux; U; Android 4.0.4; es-us; GT-P6810 Build/IMM76D) AppleWebKit/534.30 (KHTML, like Gecko) Version/4.0 Safari/534.30",
    "Samsung4": "Mozilla/5.0 (Linux; U; Android 3.1; vi-vn; GT-P7510 Build/HMJ37) AppleWebKit/534.13 (KHTML, like Gecko) Version/4.0 Safari/534.13",
    "Samsung5": "Mozilla/5.0 (Linux; U; Android 4.0.4; en-gb; SPH-P500 Build/IMM76D) AppleWebKit/534.30 (KHTML, like Gecko) Version/4.0 Safari/534.30",
    "Samsung6": "Mozilla/5.0 (Linux; U; Android 3.2; el-gr; SHW-M380W Build/HTJ85B) AppleWebKit/534.13 (KHTML, like Gecko) Version/4.0 Safari/534.13",
    "Samsung7": "Mozilla/5.0 (Linux; U; Android 4.0.4; ko-kr; SHW-M305W Build/IMM76D) AppleWebKit/534.30 (KHTML, like Gecko) Version/4.0 Safari/534.30",
    "Samsung8": "Mozilla/5.0 (Linux; U; Android 4.1.1; ko-kr; SHV-E230K Build/JRO03C) AppleWebKit/534.30 (KHTML, like Gecko) Version/4.0 Safari/534.30 NAVER(inapp; search; 200; 4.1.2)",
    "Sony1": "Mozilla/5.0 (Linux; U; Android 4.2.2; en-gb; SonySGP321 Build/10.3.1.A.0.244) AppleWebKit/534.30 (KHTML, like Gecko) Version/4.0 Safari/534.30",
    "Sony2": "Mozilla/5.0 (Linux; U; Android 4.0.3; zh-tw; SGPT12 Build/TID0142) AppleWebKit/534.30 (KHTML, like Gecko) Version/4.0 Safari/534.30",
    "Sony3": "Mozilla/5.0 (Linux; U; Android 3.2.1; en-us; Sony Tablet P Build/THMAS0042) AppleWebKit/534.13 (KHTML, like Gecko) Version/4.0 Safari/534.13",
    "Sony4": "Mozilla/5.0 (Linux; U; Android 4.1.2; es-ar; SGP311 Build/10.1.C.0.370) AppleWebKit/534.30 (KHTML, like Gecko) Version/4.0 Safari/534.30"
  },
  "tablets": {
    "apple5s": "Mozilla/5.0 (iPhone; CPU iPhone OS 5_0 like Mac OS X) AppleWebKit/534.46 (KHTML, like Gecko) Version/5.1 Mobile/9A334 Safari/7534.48.3",
    "samsung galaxy s4a": "Mozilla/5.0 (Linux; Android 4.2.2; nl-nl; SAMSUNG GT-I9505 Build/JDQ39) AppleWebKit/535.19 (KHTML, like Gecko) Version/1.0 Chrome/18.0.1025.308 Mobile Safari/535.19",
    "samsung galaxy s4b": "Mozilla/5.0 (Linux; Android 4.3; GT-I9505 Build/JSS15J) AppleWebKit/537.36 (KHTML, like Gecko) Chrome/31.0.1650.59 Mobile Safari/537.36",
    "samsung galaxy s4c": "Mozilla/5.0 (Linux; Android 4.3; en-us; SAMSUNG SCH-I545 Build/JSS15J) AppleWebKit/537.36 (KHTML, like Gecko) Version/1.5 Chrome/28.0.1500.94 Mobile Safari/537.36",
    "samsung galaxy s3o1": "Mozilla/5.0 (Linux; Android 4.4.2; GT-I9505 Build/KOT49H) AppleWebKit/537.36 (KHTML, like Gecko) Chrome/33.0.1750.117 Mobile Safari/537.36 OPR/20.0.1396.72047",
    "samsung galaxy s3c1": "Mozilla/5.0 (Linux; Android 4.2.2; en-us; SAMSUNG SGH-M919N Build/JDQ39) AppleWebKit/535.19 (KHTML, like Gecko) Version/1.0 Chrome/18.0.1025.308 Mobile Safari/535.19",
    "samsung galaxy s3a1": "Mozilla/5.0 (Linux; U; Android 4.2.2; pl-pl; GT-I9505 Build/JDQ39) AppleWebKit/534.30 (KHTML, like Gecko) Version/4.0 Mobile Safari/534.30",
    "samsung note IIa": "Mozilla/5.0 (Linux; Android 4.1.2; GT-N7100 Build/JZO54K) AppleWebKit/537.36 (KHTML, like Gecko) Chrome/30.0.1599.82 Mobile Safari/537.36",
    "samsung note IIb": "Mozilla/5.0 (Linux; U; Android 4.1.2; en-gb; GT-N7105 Build/JZO54K) AppleWebKit/534.30 (KHTML, like Gecko) Version/4.0 Mobile Safari/534.30",
    "google nexus one": "Mozilla/5.0 (Linux; Android 4.4.2; Nexus One Build/KOT49H) AppleWebKit/537.36 (KHTML, like Gecko) Version/4.0 Chrome/30.0.0.0 Mobile Safari/537.36",
    "nokia lumina 925": "Mozilla/5.0 (compatible; MSIE 10.0; Windows Phone 8.0; Trident/6.0; IEMobile/10.0; ARM; Touch; NOKIA; Lumia 925)",
    "lg optimus G": "Mozilla/5.0 (Linux; Android 4.1.2; LG-E987 Build/JZO54K) AppleWebKit/537.36 (KHTML, like Gecko) Chrome/33.0.1750.166 Mobile Safari/537.36",
    "Samsung S4": "Mozilla/5.0 (Linux; Android 4.2.2; nl-nl; SAMSUNG GT-I9505 Build/JDQ39) AppleWebKit/535.19 (KHTML, like Gecko) Version/1.0 Chrome/18.0.1025.308 Mobile Safari/535.19"
  },
  "tabletsApple": {
    "appleiPad6": "Mozilla/5.0 (iPad; CPU OS 6_0 like Mac OS X) AppleWebKit/536.26 (KHTML, like Gecko) Version/6.0 Mobile/10A5355d Safari/8536.25",
    "appleiPad5": "Mozilla/5.0 (iPad; CPU OS 5_1 like Mac OS X) AppleWebKit/534.46 (KHTML, like Gecko ) Version/5.1 Mobile/9B176 Safari/7534.48.3",
    "appleiPad4": "Mozilla/5.0(iPad; U; CPU iPhone OS 3_2 like Mac OS X; en-us) AppleWebKit/531.21.10 (KHTML, like Gecko) Version/4.0.4 Mobile/7B314 Safari/531.21.10gin_lib.cc",
    "appleiPad1A": "Mozilla/5.0(iPad; U; CPU iPhone OS 3_2 like Mac OS X; en-us) AppleWebKit/531.21.10 (KHTML, like Gecko) Version/4.0.4 Mobile/7B314 Safari/531.21.10gin_lib.cc",
    "appleiPad1B": "Mozilla/5.0 (iPad; U; CPU iPhone OS 3_2 like Mac OS X; en-us) AppleWebKit/531.21.10 (KHTML, like Gecko) Version/4.0.4 Mobile/7B314 Safari/531.21.10\nMozilla/5.0 (iPad; U; CPU iPhone OS 3_2 like Mac OS X; en-us) AppleWebKit/531.21.10 (KHTML, like Gecko) Version/4.0.4 Mobile/7B314 Safari/531.21.10",
    "appleiPad2A": "Mozilla/5.0 (iPad; CPU OS 5_1 like Mac OS X) AppleWebKit/534.46 (KHTML, like Gecko) Version/5.1 Mobile/9B176 Safari/7534.48.3",
    "appleiPad3A": "Mozilla/5.0 (iPad; CPU OS 5_1 like Mac OS X) AppleWebKit/534.46 (KHTML, like Gecko) Version/5.1 Mobile/9B176 Safari/7534.48.3",
    "appleiPad7": "Mozilla/5.0 (iPad; CPU OS 7_0 like Mac OS X) AppleWebKit/537.51.1 (KHTML, like Gecko) CriOS/30.0.1599.12 Mobile/11A465 Safari/8536.25 (3B92C18B-D9DE-4CB7-A02A-22FD2AF17C8F)"
  }
}