{
  "NewKey": {
    
  },
  "menuAll": [
    {
      "objectName": "CostcoCom",
      "objectType": "URL",
      "objectData": "http://m.costco.com",
      "menuTitle": "OnlineShoppingTitle",
      "menuDescription": "OnlineShoppingAbout"
    },
    {
      "objectName": "PhotoCenter",
      "objectType": "segue",
      "menuTitle": "PhotoCenterTitle",
      "menuDescription": "PhotoCenterAbout"
    },
    {
      "objectName": "OnlineOffers",
      "objectType": "URL",
      "objectData": "http://m.costco.com/warehouse-coupon-offers.html",
      "menuTitle": "OnlineOffersTitle",
      "menuDescription": "OnlineOffersAbout"
    },
    {
      "objectName": "WarehouseCouponOffers",
      "objectType": "segue",
      "menuTitle": "WarehouseCouponOffersTitle",
      "menuDescription": "WarehouseCouponOffersAbout"
    },
    {
      "objectName": "Locations",
      "objectType": "segue",
      "menuTitle": "LocationsTitle",
      "menuDescription": "LocationsAbout"
    },
    {
      "objectName": "Membership",
      "objectType": "URL",
      "objectData": "http://m.costco.com/membership-renewal.html",
      "menuTitle": "MembershipTitle",
      "menuDescription": "MembershipAbout"
    },
    {
      "objectName": "Connection",
      "objectType": "segue",
      "menuTitle": "ConnectionTitle",
      "menuDescription": "ConnectionAbout"
    },
    {
      "objectName": "Services",
      "objectType": "URL",
      "objectData": "http://m.costco.com/?p=aHR0cDovL3Nob3AuY29zdGNvLmNvbS9TZXJ2aWNlcy9JbmRleA%3D%3D",
      "menuTitle": "ServicesTitle",
      "menuDescription": "ServicesAbout"
    },
    {
      "objectName": "Pharmacy",
      "objectType": "URL",
      "objectData": "http://www2.costco.com/Service/FeaturePage.aspx?ProductNo=11486072",
      "menuTitle": "PharmacyTitle",
      "menuDescription": "PharmacyAbout"
    },
    {
      "objectName": "BusinessDelivery",
      "objectType": "URL",
      "objectData": "http://www2.costco.com/Browse/BDLanding.aspx?lang=en-US",
      "menuTitle": "BusinessDeliveryTitle",
      "menuDescription": "BusinessDeliveryAbout"
    },
    {
      "objectName": "ShoppingList",
      "objectType": "segue",
      "menuTitle": "ShoppingListTitle",
      "menuDescription": "ShoppingListAbout"
    },
    {
      "objectName": "CustomerService",
      "objectType": "URL",
      "objectData": "http://www.costco.com/customer-service.html",
      "menuTitle": "CustomerServiceTitle",
      "menuDescription": "CustomerServiceAbout"
    },
    {
      "objectName": "MyAccount",
      "objectType": "URL",
      "objectData": "https://m.costco.com/LogonForm?langId=-1&storeId=10301&catalogId=10701&URL=LogonForm",
      "menuTitle": "MyAccountTitle",
      "menuDescription": "MyAccountAbout"
    }
  ],
  "appURL": {
    "newsStandAppUrl": "texterityconnection://connection",
    "newsStandITunesUrl": "https://itunes.apple.com/us/app/the-costco-connection/id556553223?mt=8&uo=4",
    "connectionURL": "http://www.costcoconnection.com/connection/"
  },
  "menuItems": [
	{
	"objectName": "CostcoCom",
	"objectType": "URL",
	"objectData": "http://m.costco.com",
	"menuTitle": "OnlineShoppingTitle",
	"menuDescription": "OnlineShoppingAbout"
	},
	{
	"objectName": "OnlineOffers",
	"objectType": "URL",
	"objectData": "http://m.costco.com/mailers.html?langId=-1",
	"menuTitle": "OnlineOffersTitle",
	"menuDescription": "OnlineOffersAbout"
	},
    {
      "objectName": "WarehouseCouponOffers",
      "objectType": "segue",
      "menuTitle": "WarehouseCouponOffersTitle",
      "menuDescription": "WarehouseCouponOffersAbout"
    },
    {
      "objectName": "PhotoCenter",
      "objectType": "segue",
      "menuTitle": "PhotoCenterTitle",
      "menuDescription": "PhotoCenterAbout"
    },
    {
      "objectName": "Locations",
      "objectType": "segue",
      "menuTitle": "LocationsTitle",
      "menuDescription": "LocationsAbout"
    },
		
    {
      "objectName": "Membership",
      "objectType": "URL",
      "objectData": "http://m.costco.com/membership-renewal.html",
      "menuTitle": "MembershipTitle",
      "menuDescription": "MembershipAbout"
    },
	{
	"objectName": "Pharmacy",
	"objectType": "URL",
	"objectData": "http://www2.costco.com/Service/FeaturePage.aspx?ProductNo=11486072",
	"menuTitle": "PharmacyTitle",
	"menuDescription": "PharmacyAbout"
	},
				    {
      "objectName": "Services",
      "objectType": "URL",
      "objectData": "http://m.costco.com/?p=aHR0cDovL3Nob3AuY29zdGNvLmNvbS9TZXJ2aWNlcy9JbmRleA%3D%3D",
      "menuTitle": "ServicesTitle",
      "menuDescription": "ServicesAbout"
    },

    {
      "objectName": "BusinessDelivery",
      "objectType": "URL",
      "objectData": "http://www2.costco.com/Browse/BDLanding.aspx?lang=en-US",
      "menuTitle": "BusinessDeliveryTitle",
      "menuDescription": "BusinessDeliveryAbout"
    },
    {
      "objectName": "CustomerService",
      "objectType": "URL",
      "objectData": "http://www.costco.com/customer-service.html",
      "menuTitle": "CustomerServiceTitle",
      "menuDescription": "CustomerServiceAbout"
    },
	{
	"objectName": "Connection",
	"objectType": "segue",
	"menuTitle": "ConnectionTitle",
	"menuDescription": "ConnectionAbout"
	},
    {
      "objectName": "MyAccount",
      "objectType": "URL",
      "objectData": "https://m.costco.com/LogonForm?langId=-1&storeId=10301&catalogId=10701&URL=LogonForm",
      "menuTitle": "MyAccountTitle",
      "menuDescription": "MyAccountAbout"
    }
  ]
}