{
  "EN-US": {
    "instantSavings": "Instant Savings",
    "dollarSign": "$",
	  "off": "OFF",
    "currencyDelimiter": ",",
    "styleAndOr": "AND/OR",
    "styleChooseFrom": "CHOOSE FROM:",
    "styleOr": "Instant Monthly Savings"
   },
  "ES-US": {
	  "instantSavings": "Instant Savings",
	  "dollarSign": "$",
	  "off": "OFF",
	  "currencyDelimiter": ",",
	  "styleAndOr": "AND/OR",
	  "styleChooseFrom": "CHOOSE FROM:",
	  "styleOr": "Instant Monthly Savings"
  },
	"FR-CA": {
		"instantSavings": "Instant Savings",
		"dollarSign": "$",
		"off": "OFF",
		"currencyDelimiter": ",",
		"styleAndOr": "AND/OR",
		"styleChooseFrom": "CHOOSE FROM:",
		"styleOr": "Instant Monthly Savings"
	}
}